cornavirus-cases_latest
…
restrictions_local <- restrictions %>% 
  filter(l_restrictions == "Local") %>% 
  select(-l_url_local, -l_url_national, -l_restrictions) %>% 
  select(-starts_with("l_national")) %>% 
  rename(l_ltla = l_Category)

str_sub(colnames(restrictions_local), 1, 2) <- ""

restrictions_tidy <- restrictions_local %>%
  pivot_longer(cols = local_ruleofsix:local_openinghours, names_to = "restriction_type", values_to = "in_force")

restrictions_tidy 

## # A tibble: 536 x 4
##    ltla                  Country restriction_type       in_force
##    <chr>                 <chr>   <chr>                     <dbl>
##  1 Birmingham            E       local_ruleofsix               0
##  2 Birmingham            E       local_householdmixing         1
##  3 Birmingham            E       local_raves                   0
##  4 Birmingham            E       local_stayinglocal            0
##  5 Birmingham            E       local_stayinghome             0
##  6 Birmingham            E       local_notstayingaway          0
##  7 Birmingham            E       local_businessclosures        0
##  8 Birmingham            E       local_openinghours            0
##  9 Blackburn with Darwen E       local_ruleofsix               0
## 10 Blackburn with Darwen E       local_householdmixing         1
## # ... with 526 more rows
…
la_lookup <- read_csv("./Data/Lower_Tier_Local_Authority_to_Upper_Tier_Local_Authority__December_2019__Lookup_in_England_and_Wales.csv")

## Parsed with column specification:
## cols(
##   FID = col_double(),
##   LTLA19CD = col_character(),
##   LTLA19NM = col_character(),
##   UTLA19CD = col_character(),
##   UTLA19NM = col_character()
## )

restriction_local %>% 
  left_join(la_lookup, by = c("ltla" = "LTLA19NM"))

## # A tibble: 67 x 8
##    ltla     Country rest_group  rest_group_id   FID LTLA19CD UTLA19CD UTLA19NM  
##    <chr>    <chr>   <chr>               <int> <dbl> <chr>    <chr>    <chr>     
##  1 Birming~ E       0_1_0_0_0_~             1    81 E080000~ E080000~ Birmingham
##  2 Blackbu~ E       0_1_0_0_0_~             1     8 E060000~ E060000~ Blackburn~
##  3 Blackpo~ E       0_1_0_0_0_~             1     9 E060000~ E060000~ Blackpool 
##  4 Bolton   E       0_1_0_0_0_~             1    57 E080000~ E080000~ Bolton    
##  5 Bradford E       0_1_0_0_0_~             1    88 E080000~ E080000~ Bradford  
##  6 Burnley  E       0_1_0_0_0_~             1   267 E070001~ E100000~ Lancashire
##  7 Bury     E       0_1_0_0_0_~             1    58 E080000~ E080000~ Bury      
##  8 Calderd~ E       0_1_0_0_0_~             1    89 E080000~ E080000~ Calderdale
##  9 Chorley  E       0_1_0_0_0_~             1   268 E070001~ E100000~ Lancashire
## 10 County ~ E       0_1_0_0_0_~             1    45 E060000~ E060000~ County Du~
## # ... with 57 more rows
…
Drop columns where all values are NA

cases <- cases %>% 
  select_if(~sum(!is.na(.)) > 0)
cases

## # A tibble: 107,240 x 13
##    areaName areaCode date       newCasesByPubli~ cumCasesByPubli~
##    <chr>    <chr>    <date>                <int>            <int>
##  1 Aberdee~ S120000~ 2020-10-08               31             1525
##  2 Aberdee~ S120000~ 2020-10-07               24             1494
##  3 Aberdee~ S120000~ 2020-10-06                7             1470
##  4 Aberdee~ S120000~ 2020-10-05               15             1463
##  5 Aberdee~ S120000~ 2020-10-04               19             1448
##  6 Aberdee~ S120000~ 2020-10-03               11             1429
##  7 Aberdee~ S120000~ 2020-10-02               17             1418
##  8 Aberdee~ S120000~ 2020-10-01               16             1401
##  9 Aberdee~ S120000~ 2020-09-30               32             1385
## 10 Aberdee~ S120000~ 2020-09-29               34             1353
## # ... with 107,230 more rows, and 8 more variables:
## #   cumCasesBySpecimenDateRate <dbl>, newCasesBySpecimenDate <int>,
## #   cumCasesBySpecimenDate <int>, newDeaths28DaysByPublishDate <int>,
## #   cumDeaths28DaysByPublishDate <int>, cumDeaths28DaysByPublishDateRate <dbl>,
## #   cumDeaths28DaysByDeathDate <int>, cumDeaths28DaysByDeathDateRate <dbl>

Calculate moving averages

cases <- cases %>% 
  mutate(mm_newCasesBySpecimenDate = roll_mean(newCasesBySpecimenDate, n = 7, align="center", fill = 0))

cases

## # A tibble: 107,240 x 14
##    areaName areaCode date       newCasesByPubli~ cumCasesByPubli~
##    <chr>    <chr>    <date>                <int>            <int>
##  1 Aberdee~ S120000~ 2020-10-08               31             1525
##  2 Aberdee~ S120000~ 2020-10-07               24             1494
##  3 Aberdee~ S120000~ 2020-10-06                7             1470
##  4 Aberdee~ S120000~ 2020-10-05               15             1463
##  5 Aberdee~ S120000~ 2020-10-04               19             1448
##  6 Aberdee~ S120000~ 2020-10-03               11             1429
##  7 Aberdee~ S120000~ 2020-10-02               17             1418
##  8 Aberdee~ S120000~ 2020-10-01               16             1401
##  9 Aberdee~ S120000~ 2020-09-30               32             1385
## 10 Aberdee~ S120000~ 2020-09-29               34             1353
## # ... with 107,230 more rows, and 9 more variables:
## #   cumCasesBySpecimenDateRate <dbl>, newCasesBySpecimenDate <int>,
## #   cumCasesBySpecimenDate <int>, newDeaths28DaysByPublishDate <int>,
## #   cumDeaths28DaysByPublishDate <int>, cumDeaths28DaysByPublishDateRate <dbl>,
## #   cumDeaths28DaysByDeathDate <int>, cumDeaths28DaysByDeathDateRate <dbl>,
## #   mm_newCasesBySpecimenDate <dbl>
…
## Parsed with column specification:
## cols(
##   .default = col_number(),
##   Code = col_character(),
##   Name = col_character(),
##   Geography1 = col_character()
## )

## See spec(...) for full column specifications.

pop_df <- pop_df %>% 
  rename(all_ages = `All ages`)
pop_df

## # A tibble: 426 x 95
##    Code  Name  Geography1 all_ages    `0`    `1`    `2`    `3`    `4`    `5`
##    <chr> <chr> <chr>         <dbl>  <dbl>  <dbl>  <dbl>  <dbl>  <dbl>  <dbl>
##  1 K020~ UNIT~ Country    66796807 722881 752554 777309 802334 802185 809152
##  2 K030~ GREA~ Country    64903140 700160 729146 753103 777260 777225 784154
##  3 K040~ ENGL~ Country    59439840 649388 676412 698837 720721 719821 726317
##  4 E920~ ENGL~ Country    56286961 618858 644056 665596 686135 684992 691122
##  5 E120~ NORT~ Region      2669941  26621  27612  28621  29575  29315  30224
##  6 E060~ Coun~ Unitary A~   530094   4890   5085   5292   5483   5597   5826
##  7 E060~ Darl~ Unitary A~   106803   1100   1152   1112   1218   1208   1257
##  8 E060~ Hart~ Unitary A~    93663   1006   1009   1031   1125   1058   1126
##  9 E060~ Midd~ Unitary A~   140980   1802   1944   1979   1886   1972   1957
## 10 E060~ Nort~ Unitary A~   322434   2665   2952   2996   3146   3006   3129
## # ... with 416 more rows, and 85 more variables: `6` <dbl>, `7` <dbl>,
## #   `8` <dbl>, `9` <dbl>, `10` <dbl>, `11` <dbl>, `12` <dbl>, `13` <dbl>,
## #   `14` <dbl>, `15` <dbl>, `16` <dbl>, `17` <dbl>, `18` <dbl>, `19` <dbl>,
## #   `20` <dbl>, `21` <dbl>, `22` <dbl>, `23` <dbl>, `24` <dbl>, `25` <dbl>,
## #   `26` <dbl>, `27` <dbl>, `28` <dbl>, `29` <dbl>, `30` <dbl>, `31` <dbl>,
## #   `32` <dbl>, `33` <dbl>, `34` <dbl>, `35` <dbl>, `36` <dbl>, `37` <dbl>,
## #   `38` <dbl>, `39` <dbl>, `40` <dbl>, `41` <dbl>, `42` <dbl>, `43` <dbl>,
## #   `44` <dbl>, `45` <dbl>, `46` <dbl>, `47` <dbl>, `48` <dbl>, `49` <dbl>,
## #   `50` <dbl>, `51` <dbl>, `52` <dbl>, `53` <dbl>, `54` <dbl>, `55` <dbl>,
…
pop_df_minimal <- pop_df %>% 
  select(Code, all_ages)

pop_df_minimal

## # A tibble: 426 x 2
##    Code      all_ages
##    <chr>        <dbl>
##  1 K02000001 66796807
##  2 K03000001 64903140
##  3 K04000001 59439840
##  4 E92000001 56286961
##  5 E12000001  2669941
##  6 E06000047   530094
##  7 E06000005   106803
##  8 E06000001    93663
##  9 E06000002   140980
## 10 E06000057   322434
## # ... with 416 more rows
…
